…
untidy data:

``` r
untidy_parking_meters <- parking_meters %>%
  select(meter_head, r_mf_9a_6p, r_mf_6p_10, r_sa_9a_6p, r_sa_6p_10, r_su_9a_6p, r_su_6p_10,geo_local_area) %>%
  pivot_longer(
    cols = c(r_mf_9a_6p, r_mf_6p_10, r_sa_9a_6p, r_sa_6p_10, r_su_9a_6p, r_su_6p_10),
    names_to = "time_period",
    values_to  ="parking_rating" 
  )

print(untidy_parking_meters)
```

    ## # A tibble: 60,192 × 4
    ##    meter_head  geo_local_area time_period parking_rating
    ##    <chr>       <chr>          <chr>       <chr>         
    ##  1 Twin        West End       r_mf_9a_6p  $2.00         
    ##  2 Twin        West End       r_mf_6p_10  $4.00         
    ##  3 Twin        West End       r_sa_9a_6p  $2.00         
    ##  4 Twin        West End       r_sa_6p_10  $4.00         
    ##  5 Twin        West End       r_su_9a_6p  $2.00         
    ##  6 Twin        West End       r_su_6p_10  $4.00         
    ##  7 Pay Station Strathcona     r_mf_9a_6p  $1.00         
    ##  8 Pay Station Strathcona     r_mf_6p_10  $1.00         
    ##  9 Pay Station Strathcona     r_sa_9a_6p  $1.00         
    ## 10 Pay Station Strathcona     r_sa_6p_10  $1.00         
    ## # ℹ 60,182 more rows
…
    ## Warning: Values from `parking_rating` are not uniquely identified; output will contain
    ## list-cols.
    ## • Use `values_fn = list` to suppress this warning.
    ## • Use `values_fn = {summary_fun}` to summarise duplicates.
    ## • Use the following dplyr code to identify duplicates.
    ##   {data} %>%
    ##   dplyr::group_by(meter_head, geo_local_area, time_period) %>%
    ##   dplyr::summarise(n = dplyr::n(), .groups = "drop") %>%
    ##   dplyr::filter(n > 1L)

``` r
print(tidy_parking_meters)
```

    ## # A tibble: 80 × 8
    ##    meter_head         geo_local_area r_mf_9a_6p r_mf_6p_10 r_sa_9a_6p r_sa_6p_10
    ##    <chr>              <chr>          <list>     <list>     <list>     <list>    
    ##  1 Twin               West End       <chr>      <chr>      <chr>      <chr>     
    ##  2 Pay Station        Strathcona     <chr [61]> <chr [61]> <chr [61]> <chr [61]>
    ##  3 Twin               Riley Park     <chr>      <chr>      <chr>      <chr>     
    ##  4 Single             West Point Gr… <chr [8]>  <chr [8]>  <chr [8]>  <chr [8]> 
    ##  5 Twin               Fairview       <chr>      <chr>      <chr>      <chr>     
    ##  6 Twin               Downtown       <chr>      <chr>      <chr>      <chr>     
    ##  7 Single             Downtown       <chr>      <chr>      <chr>      <chr>     
    ##  8 Twin               South Cambie   <chr [76]> <chr [76]> <chr [76]> <chr [76]>
    ##  9 Pay Station        Riley Park     <chr [17]> <chr [17]> <chr [17]> <chr [17]>
    ## 10 Single / Disabili… Kitsilano      <chr [8]>  <chr [8]>  <chr [8]>  <chr [8]> 
    ## # ℹ 70 more rows
    ## # ℹ 2 more variables: r_su_9a_6p <list>, r_su_6p_10 <list>
…
    ## Warning: There was 1 warning in `mutate()`.
    ## ℹ In argument: `time_limit_hours = as.numeric(gsub(" Hr", "", t_mf_9a_6p))`.
    ## Caused by warning:
    ## ! 强制改变过程中产生了NA

``` r
print(filtered_parking_meters)
```

    ## # A tibble: 10,002 × 4
    ##    meter_head  meter_id time_limit_hours morning_rate_numeric
    ##    <chr>       <chr>               <dbl>                <dbl>
    ##  1 Twin        670805                  2                    2
    ##  2 Pay Station 471405                 NA                    1
    ##  3 Twin        C80145                  2                    1
    ##  4 Single      D03704                  2                    1
    ##  5 Twin        301023                  2                    2
    ##  6 Twin        591318                  3                    2
    ##  7 Twin        580933                  2                    2
    ##  8 Single      580935                  2                    2
    ##  9 Twin        B71501                  2                    4
    ## 10 Twin        591340                  3                    2
    ## # ℹ 9,992 more rows
…
``` r
filtered2_parking_meters<- parking_meters %>%
  select(meter_id, meter_head, r_mf_9a_6p, r_sa_9a_6p, r_su_9a_6p) %>%
  filter(!is.na(r_mf_9a_6p) & !is.na(r_sa_9a_6p) & !is.na(r_su_9a_6p)) %>%
  mutate(
    morning_rate_weekdays = as.numeric(gsub("\\$", "", r_mf_9a_6p)),
    morning_rate_saturdays = as.numeric(gsub("\\$", "", r_sa_9a_6p)),
    morning_rate_sundays = as.numeric(gsub("\\$", "", r_su_9a_6p))
  ) %>%
  select(-r_mf_9a_6p, -r_sa_9a_6p, -r_su_9a_6p)

print(filtered2_parking_meters)
```

    ## # A tibble: 10,009 × 5
    ##    meter_id meter_head  morning_rate_weekdays morning_rate_saturdays
    ##    <chr>    <chr>                       <dbl>                  <dbl>
    ##  1 670805   Twin                            2                      2
    ##  2 471405   Pay Station                     1                      1
    ##  3 C80145   Twin                            1                      1
    ##  4 D03704   Single                          1                      1
    ##  5 301023   Twin                            2                      2
    ##  6 591318   Twin                            2                      2
    ##  7 580933   Twin                            2                      2
    ##  8 580935   Single                          2                      2
    ##  9 B71501   Twin                            4                      4
    ## 10 591340   Twin                            2                      2
    ## # ℹ 9,999 more rows
    ## # ℹ 1 more variable: morning_rate_sundays <dbl>
…
